ITMO/Электроника и схемотехника/lab/Lab2/AKIP0002.CSV

Record Length,20480,,Source,CH1,CH2
Sample Interval,CH1:0.0000020000000 CH2:0.0000020000000,,Second,Volt,Volt
Vertical Units,CH1:V CH2:V,,-0.02047999948,3.20000,-1.52000
Vertical Scale,CH1:0.50 CH2:0.50,,-0.02047800086,3.20000,-1.52000
Vertical Offset,CH1:-1.05000 CH2:0.00,,-0.02047600038,3.20000,-1.50000
Horizontal Units,s,,-0.02047399990,3.18000,-1.50000
Horizontal Scale,0.0010000000,,-0.02047199942,3.18000,-1.50000
Model Number,¯¶¤”-4115/4A,,-0.02047000080,3.20000,-1.48000
Serial Number,NDS1MFCQ3R1731,,-0.02046800032,3.20000,-1.48000
Software Version,3.01.01.31R20,,-0.02046599984,3.18000,-1.48000
,,,-0.02046399936,3.18000,-1.48000
,,,-0.02046200074,3.18000,-1.46000
,,,-0.02046000026,3.16000,-1.46000
,,,-0.02045799978,3.16000,-1.46000
,,,-0.02045599930,3.18000,-1.44000
,,,-0.02045400068,3.16000,-1.44000
,,,-0.02045200020,3.16000,-1.42000
,,,-0.02044999972,3.16000,-1.42000
,,,-0.02044799924,3.16000,-1.42000
,,,-0.02044600062,3.16000,-1.40000
,,,-0.02044400014,3.16000,-1.38000
,,,-0.02044199966,3.14000,-1.38000
,,,-0.02043999918,3.14000,-1.38000
,,,-0.02043800056,3.14000,-1.36000
,,,-0.02043600008,3.14000,-1.36000
,,,-0.02043399960,3.14000,-1.34000
,,,-0.02043199912,3.12000,-1.32000
,,,-0.02043000050,3.10000,-1.34000
,,,-0.02042800002,3.12000,-1.32000
,,,-0.02042599954,3.12000,-1.32000
,,,-0.02042399906,3.12000,-1.30000
,,,-0.02042200044,3.14000,-1.28000
,,,-0.02041999996,3.12000,-1.28000
,,,-0.02041799948,3.12000,-1.28000
,,,-0.02041600086,3.14000,-1.26000
,,,-0.02041400038,3.12000,-1.26000
,,,-0.02041199990,3.10000,-1.24000
,,,-0.02040999942,3.10000,-1.22000
,,,-0.02040800080,3.10000,-1.24000
,,,-0.02040600032,3.10000,-1.22000
,,,-0.02040399984,3.10000,-1.20000
,,,-0.02040199935,3.10000,-1.20000
,,,-0.02040000074,3.10000,-1.20000
,,,-0.02039800026,3.10000,-1.18000
,,,-0.02039599977,3.08000,-1.16000
,,,-0.02039399929,3.10000,-1.16000
,,,-0.02039200068,3.08000,-1.14000
,,,-0.02039000019,3.08000,-1.12000
,,,-0.02038799971,3.08000,-1.12000
,,,-0.02038599923,3.06000,-1.12000
,,,-0.02038400061,3.04000,-1.12000
,,,-0.02038200013,3.08000,-1.10000
,,,-0.02037999965,3.04000,-1.10000
,,,-0.02037799917,3.04000,-1.08000
,,,-0.02037600055,3.06000,-1.06000
,,,-0.02037400007,3.04000,-1.06000
,,,-0.02037199959,3.04000,-1.04000
,,,-0.02036999911,3.04000,-1.04000
,,,-0.02036800049,3.06000,-1.02000
,,,-0.02036600001,3.02000,-1.02000
,,,-0.02036399953,3.02000,-1.00000
,,,-0.02036199905,3.04000,-0.98000
,,,-0.02036000043,3.00000,-1.00000
,,,-0.02035799995,3.02000,-0.96000
,,,-0.02035599947,3.00000,-0.98000
,,,-0.02035400085,3.00000,-0.96000
,,,-0.02035200037,3.00000,-0.96000
,,,-0.02034999989,2.98000,-0.94000
,,,-0.02034799941,3.00000,-0.94000
,,,-0.02034600079,3.00000,-0.92000
,,,-0.02034400031,3.00000,-0.92000
,,,-0.02034199983,2.98000,-0.90000
,,,-0.02033999935,2.98000,-0.88000
,,,-0.02033800073,2.96000,-0.88000
,,,-0.02033600025,3.00000,-0.84000
,,,-0.02033399977,2.98000,-0.86000
,,,-0.02033199929,2.98000,-0.84000
,,,-0.02033000067,2.96000,-0.82000
,,,-0.02032800019,2.94000,-0.82000
,,,-0.02032599971,2.94000,-0.80000
,,,-0.02032399923,2.94000,-0.80000
,,,-0.02032200061,2.94000,-0.80000
,,,-0.02032000013,2.94000,-0.76000
,,,-0.02031799965,2.92000,-0.78000
,,,-0.02031599917,2.94000,-0.76000
,,,-0.02031400055,2.92000,-0.76000
,,,-0.02031200007,2.92000,-0.74000
,,,-0.02030999959,2.90000,-0.74000
,,,-0.02030799910,2.92000,-0.72000
,,,-0.02030600049,2.92000,-0.70000
,,,-0.02030400001,2.88000,-0.72000
,,,-0.02030199952,2.90000,-0.68000
,,,-0.02029999904,2.88000,-0.68000
,,,-0.02029800043,2.86000,-0.66000
,,,-0.02029599994,2.88000,-0.66000
,,,-0.02029399946,2.86000,-0.66000
,,,-0.02029200085,2.86000,-0.64000
,,,-0.02029000036,2.86000,-0.62000
,,,-0.02028799988,2.86000,-0.62000
,,,-0.02028599940,2.84000,-0.60000
,,,-0.02028400078,2.84000,-0.60000
,,,-0.02028200030,2.84000,-0.58000
,,,-0.02027999982,2.82000,-0.58000
,,,-0.02027799934,2.80000,-0.56000
,,,-0.02027600072,2.84000,-0.54000
,,,-0.02027400024,2.82000,-0.54000
,,,-0.02027199976,2.78000,-0.54000
,,,-0.02026999928,2.76000,-0.52000
,,,-0.02026800066,2.76000,-0.50000
,,,-0.02026600018,2.78000,-0.50000
,,,-0.02026399970,2.76000,-0.50000
,,,-0.02026199922,2.78000,-0.50000
,,,-0.02026000060,2.76000,-0.46000
,,,-0.02025800012,2.76000,-0.48000
,,,-0.02025599964,2.76000,-0.46000
,,,-0.02025399916,2.72000,-0.46000
,,,-0.02025200054,2.76000,-0.44000
,,,-0.02025000006,2.70000,-0.44000
,,,-0.02024799958,2.70000,-0.42000
,,,-0.02024599910,2.70000,-0.42000
,,,-0.02024400048,2.70000,-0.42000
,,,-0.02024200000,2.68000,-0.38000
,,,-0.02023999952,2.68000,-0.38000
,,,-0.02023799904,2.66000,-0.36000
,,,-0.02023600042,2.66000,-0.34000
,,,-0.02023399994,2.66000,-0.34000
,,,-0.02023199946,2.62000,-0.34000
,,,-0.02023000084,2.62000,-0.34000
,,,-0.02022800036,2.64000,-0.32000
,,,-0.02022599988,2.62000,-0.30000
,,,-0.02022399940,2.62000,-0.28000
,,,-0.02022200078,2.60000,-0.30000
,,,-0.02022000030,2.58000,-0.26000
,,,-0.02021799982,2.56000,-0.28000
,,,-0.02021599934,2.58000,-0.26000
,,,-0.02021400072,2.56000,-0.24000
,,,-0.02021200024,2.54000,-0.24000
,,,-0.02020999976,2.52000,-0.22000
,,,-0.02020799927,2.52000,-0.22000
,,,-0.02020600066,2.50000,-0.20000
,,,-0.02020400017,2.50000,-0.20000
,,,-0.02020199969,2.46000,-0.20000
,,,-0.02019999921,2.46000,-0.18000
,,,-0.02019800059,2.46000,-0.18000
,,,-0.02019600011,2.44000,-0.18000
,,,-0.02019399963,2.44000,-0.16000
,,,-0.02019199915,2.40000,-0.16000
,,,-0.02019000053,2.38000,-0.14000
,,,-0.02018800005,2.36000,-0.14000
,,,-0.02018599957,2.36000,-0.12000
,,,-0.02018399909,2.36000,-0.10000
,,,-0.02018200047,2.34000,-0.10000
,,,-0.02017999999,2.30000,-0.10000
,,,-0.02017799951,2.30000,-0.10000
,,,-0.02017599903,2.26000,-0.08000
,,,-0.02017400041,2.26000,-0.06000
,,,-0.02017199993,2.24000,-0.06000
,,,-0.02016999945,2.20000,-0.06000
,,,-0.02016800083,2.20000,-0.06000
,,,-0.02016600035,2.16000,-0.04000
,,,-0.02016399987,2.16000,-0.04000
,,,-0.02016199939,2.12000,-0.04000
,,,-0.02016000077,2.12000,-0.04000
,,,-0.02015800029,2.08000,-0.02000
,,,-0.02015599981,2.08000,-0.02000
,,,-0.02015399933,2.04000,-0.02000
,,,-0.02015200071,2.02000,-0.02000
,,,-0.02015000023,1.98000,-0.02000
,,,-0.02014799975,1.94000,-0.02000
,,,-0.02014599927,1.96000,0.00
,,,-0.02014400065,1.88000,0.02000
,,,-0.02014200017,1.88000,0.00
,,,-0.02013999969,1.86000,0.02000
,,,-0.02013799921,1.82000,0.00
,,,-0.02013600059,1.78000,0.02000
,,,-0.02013400011,1.74000,0.02000
,,,-0.02013199963,1.72000,0.02000
,,,-0.02012999915,1.68000,0.02000
,,,-0.02012800053,1.66000,0.02000
,,,-0.02012600005,1.64000,0.04000
,,,-0.02012399957,1.62000,0.02000
,,,-0.02012199908,1.54000,0.02000
,,,-0.02012000047,1.54000,0.02000
,,,-0.02011799999,1.48000,0.04000
,,,-0.02011599950,1.44000,0.04000
,,,-0.02011399902,1.40000,0.04000
,,,-0.02011200041,1.38000,0.02000
,,,-0.02010999992,1.32000,0.04000
,,,-0.02010799944,1.30000,0.04000
,,,-0.02010600083,1.24000,0.02000
,,,-0.02010400034,1.22000,0.04000
,,,-0.02010199986,1.18000,0.04000
,,,-0.02009999938,1.18000,0.04000
,,,-0.02009800076,1.10000,0.04000
,,,-0.02009600028,1.08000,0.04000
,,,-0.02009399980,1.02000,0.04000
,,,-0.02009199932,0.98000,0.04000
,,,-0.02009000070,0.96000,0.04000
,,,-0.02008800022,0.92000,0.04000
,,,-0.02008599974,0.88000,0.04000
,,,-0.02008399926,0.86000,0.02000
,,,-0.02008200064,0.80000,0.02000
,,,-0.02008000016,0.72000,0.04000
,,,-0.02007799968,0.74000,0.04000
,,,-0.02007599920,0.68000,0.04000
,,,-0.02007400058,0.64000,0.04000
,,,-0.02007200010,0.62000,0.04000
,,,-0.02006999962,0.54000,0.02000
,,,-0.02006799914,0.54000,0.04000
,,,-0.02006600052,0.52000,0.02000
,,,-0.02006400004,0.48000,0.04000
,,,-0.02006199956,0.42000,0.04000
,,,-0.02005999908,0.38000,0.04000
,,,-0.02005800046,0.36000,0.04000
,,,-0.02005599998,0.30000,0.04000
,,,-0.02005399950,0.28000,0.04000
,,,-0.02005200088,0.24000,0.04000
,,,-0.02005000040,0.20000,0.04000
,,,-0.02004799992,0.16000,0.04000
,,,-0.02004599944,0.14000,0.06000
,,,-0.02004400082,0.10000,0.04000
,,,-0.02004200034,0.04000,0.04000
,,,-0.02003999986,0.02000,0.04000
,,,-0.02003799938,-0.04000,0.04000
,,,-0.02003600076,-0.04000,0.04000
,,,-0.02003400028,-0.10000,0.04000
,,,-0.02003199980,-0.12000,0.04000
,,,-0.02002999932,-0.18000,0.04000
,,,-0.02002800070,-0.20000,0.04000
,,,-0.02002600022,-0.26000,0.02000
,,,-0.02002399974,-0.28000,0.04000
,,,-0.02002199925,-0.32000,0.04000
,,,-0.02002000064,-0.34000,0.04000
,,,-0.02001800016,-0.42000,0.04000
,,,-0.02001599967,-0.44000,0.04000
,,,-0.02001399919,-0.44000,0.04000
,,,-0.02001200058,-0.48000,0.06000
,,,-0.02001000009,-0.54000,0.02000
,,,-0.02000799961,-0.54000,0.04000
,,,-0.02000599913,-0.58000,0.04000
,,,-0.02000400051,-0.60000,0.06000
,,,-0.02000200003,-0.60000,0.06000
,,,-0.01999999955,-0.62000,0.06000
,,,-0.01999799907,-0.62000,0.06000
,,,-0.01999600045,-0.64000,0.08000
,,,-0.01999399997,-0.62000,0.10000
,,,-0.01999199949,-0.66000,0.10000
,,,-0.01999000087,-0.64000,0.12000
,,,-0.01998800039,-0.64000,0.14000
,,,-0.01998599991,-0.68000,0.14000
,,,-0.01998399943,-0.68000,0.14000
,,,-0.01998200081,-0.66000,0.16000
,,,-0.01998000033,-0.66000,0.18000
,,,-0.01997799985,-0.68000,0.20000
,,,-0.01997599937,-0.68000,0.20000
,,,-0.01997400075,-0.66000,0.22000
,,,-0.01997200027,-0.68000,0.22000
,,,-0.01996999979,-0.68000,0.22000
,,,-0.01996799931,-0.70000,0.26000
,,,-0.01996600069,-0.68000,0.26000
,,,-0.01996400021,-0.68000,0.30000
,,,-0.01996199973,-0.68000,0.28000
,,,-0.01995999925,-0.68000,0.30000
,,,-0.01995800063,-0.68000,0.34000
,,,-0.01995600015,-0.70000,0.34000
,,,-0.01995399967,-0.68000,0.34000
,,,-0.01995199919,-0.68000,0.36000
,,,-0.01995000057,-0.70000,0.36000
,,,-0.01994800009,-0.68000,0.38000
,,,-0.01994599961,-0.68000,0.40000
,,,-0.01994399913,-0.70000,0.42000
,,,-0.01994200051,-0.68000,0.44000
,,,-0.01994000003,-0.70000,0.42000
,,,-0.01993799955,-0.68000,0.46000
,,,-0.01993599907,-0.72000,0.46000
,,,-0.01993400045,-0.70000,0.48000
,,,-0.01993199997,-0.70000,0.48000
,,,-0.01992999949,-0.74000,0.50000
,,,-0.01992800087,-0.70000,0.50000
,,,-0.01992600039,-0.72000,0.50000
,,,-0.01992399991,-0.70000,0.52000
,,,-0.01992199942,-0.70000,0.54000
,,,-0.01992000081,-0.70000,0.54000
,,,-0.01991800033,-0.70000,0.56000
,,,-0.01991599984,-0.70000,0.58000
,,,-0.01991399936,-0.70000,0.60000
,,,-0.01991200075,-0.70000,0.60000
,,,-0.01991000026,-0.70000,0.62000
,,,-0.01990799978,-0.70000,0.62000
,,,-0.01990599930,-0.70000,0.64000
,,,-0.01990400068,-0.70000,0.64000
,,,-0.01990200020,-0.70000,0.68000
,,,-0.01989999972,-0.72000,0.68000
,,,-0.01989799924,-0.72000,0.68000
,,,-0.01989600062,-0.72000,0.70000
,,,-0.01989400014,-0.70000,0.72000
,,,-0.01989199966,-0.70000,0.74000
,,,-0.01988999918,-0.72000,0.74000
,,,-0.01988800056,-0.74000,0.76000
,,,-0.01988600008,-0.70000,0.76000
,,,-0.01988399960,-0.70000,0.80000
,,,-0.01988199912,-0.74000,0.80000
,,,-0.01988000050,-0.74000,0.82000
,,,-0.01987800002,-0.74000,0.82000
,,,-0.01987599954,-0.72000,0.84000
,,,-0.01987399906,-0.72000,0.86000
,,,-0.01987200044,-0.74000,0.88000
,,,-0.01986999996,-0.74000,0.86000
,,,-0.01986799948,-0.72000,0.88000
,,,-0.01986600086,-0.72000,0.92000
,,,-0.01986400038,-0.70000,0.92000
,,,-0.01986199990,-0.72000,0.92000
,,,-0.01985999942,-0.72000,0.94000
,,,-0.01985800080,-0.72000,0.96000
,,,-0.01985600032,-0.70000,0.98000
,,,-0.01985399984,-0.72000,0.98000
,,,-0.01985199936,-0.70000,1.00000
,,,-0.01985000074,-0.72000,1.00000
,,,-0.01984800026,-0.72000,1.00000
,,,-0.01984599978,-0.72000,1.04000
,,,-0.01984399930,-0.74000,1.04000
,,,-0.01984200068,-0.74000,1.06000
,,,-0.01984000020,-0.74000,1.06000
,,,-0.01983799972,-0.76000,1.08000
,,,-0.01983599924,-0.72000,1.10000
,,,-0.01983400062,-0.72000,1.08000
,,,-0.01983200014,-0.70000,1.14000
,,,-0.01982999966,-0.74000,1.14000
,,,-0.01982799917,-0.74000,1.16000
,,,-0.01982600056,-0.72000,1.18000
,,,-0.01982400008,-0.72000,1.18000
,,,-0.01982199959,-0.74000,1.18000
,,,-0.01981999911,-0.72000,1.20000
,,,-0.01981800050,-0.72000,1.22000
,,,-0.01981600001,-0.72000,1.22000
,,,-0.01981399953,-0.72000,1.24000
,,,-0.01981199905,-0.72000,1.26000
,,,-0.01981000043,-0.74000,1.26000
,,,-0.01980799995,-0.72000,1.26000
,,,-0.01980599947,-0.72000,1.28000
,,,-0.01980400085,-0.74000,1.30000
,,,-0.01980200037,-0.74000,1.32000
,,,-0.01979999989,-0.72000,1.32000
,,,-0.01979799941,-0.72000,1.32000
,,,-0.01979600079,-0.74000,1.34000
,,,-0.01979400031,-0.72000,1.36000
,,,-0.01979199983,-0.72000,1.38000
,,,-0.01978999935,-0.74000,1.38000
,,,-0.01978800073,-0.74000,1.40000
,,,-0.01978600025,-0.74000,1.40000
,,,-0.01978399977,-0.72000,1.42000
,,,-0.01978199929,-0.74000,1.44000
,,,-0.01978000067,-0.74000,1.46000
,,,-0.01977800019,-0.72000,1.46000
,,,-0.01977599971,-0.74000,1.46000
,,,-0.01977399923,-0.76000,1.48000
,,,-0.01977200061,-0.74000,1.48000
,,,-0.01977000013,-0.74000,1.50000
,,,-0.01976799965,-0.74000,1.50000
,,,-0.01976599917,-0.74000,1.52000
,,,-0.01976400055,-0.74000,1.52000
,,,-0.01976200007,-0.74000,1.52000
,,,-0.01975999959,-0.74000,1.54000
,,,-0.01975799911,-0.74000,1.56000
,,,-0.01975600049,-0.74000,1.56000
,,,-0.01975400001,-0.72000,1.58000
,,,-0.01975199953,-0.72000,1.60000
,,,-0.01974999905,-0.74000,1.60000
,,,-0.01974800043,-0.76000,1.62000
,,,-0.01974599995,-0.72000,1.64000
,,,-0.01974399947,-0.74000,1.66000
,,,-0.01974200085,-0.74000,1.66000
,,,-0.01974000037,-0.76000,1.66000
,,,-0.01973799989,-0.74000,1.70000
,,,-0.01973599941,-0.76000,1.68000
,,,-0.01973400079,-0.74000,1.70000
,,,-0.01973200031,-0.72000,1.72000
,,,-0.01972999983,-0.74000,1.74000
,,,-0.01972799934,-0.72000,1.74000
,,,-0.01972600073,-0.74000,1.76000
,,,-0.01972400025,-0.74000,1.76000
,,,-0.01972199976,-0.74000,1.78000
,,,-0.01971999928,-0.74000,1.80000
,,,-0.01971800067,-0.74000,1.78000
,,,-0.01971600018,-0.72000,1.82000
,,,-0.01971399970,-0.74000,1.82000
,,,-0.01971199922,-0.74000,1.84000
,,,-0.01971000060,-0.74000,1.84000
,,,-0.01970800012,-0.76000,1.86000
,,,-0.01970599964,-0.74000,1.86000
,,,-0.01970399916,-0.74000,1.86000
,,,-0.01970200054,-0.76000,1.88000
,,,-0.01970000006,-0.76000,1.90000
,,,-0.01969799958,-0.74000,1.92000
,,,-0.01969599910,-0.72000,1.94000
,,,-0.01969400048,-0.74000,1.94000
,,,-0.01969200000,-0.76000,1.94000
,,,-0.01968999952,-0.74000,1.96000
,,,-0.01968799904,-0.74000,1.96000
,,,-0.01968600042,-0.74000,1.98000
,,,-0.01968399994,-0.74000,1.98000
,,,-0.01968199946,-0.74000,2.00000
,,,-0.01968000084,-0.76000,2.00000
,,,-0.01967800036,-0.74000,2.02000
,,,-0.01967599988,-0.74000,2.04000
,,,-0.01967399940,-0.74000,2.04000
,,,-0.01967200078,-0.74000,2.08000
,,,-0.01967000030,-0.76000,2.08000
,,,-0.01966799982,-0.76000,2.08000
,,,-0.01966599934,-0.74000,2.10000
,,,-0.01966400072,-0.74000,2.10000
,,,-0.01966200024,-0.74000,2.12000
,,,-0.01965999976,-0.76000,2.12000
,,,-0.01965799928,-0.74000,2.14000
,,,-0.01965600066,-0.76000,2.14000
,,,-0.01965400018,-0.74000,2.16000
,,,-0.01965199970,-0.74000,2.16000
,,,-0.01964999922,-0.74000,2.18000
,,,-0.01964800060,-0.74000,2.18000
,,,-0.01964600012,-0.74000,2.20000
,,,-0.01964399964,-0.76000,2.22000
,,,-0.01964199916,-0.74000,2.22000
,,,-0.01964000054,-0.76000,2.22000
,,,-0.01963800006,-0.76000,2.24000
,,,-0.01963599958,-0.74000,2.26000
,,,-0.01963399909,-0.74000,2.26000
,,,-0.01963200048,-0.74000,2.26000
,,,-0.01963000000,-0.74000,2.28000
,,,-0.01962799951,-0.74000,2.32000
,,,-0.01962599903,-0.74000,2.32000
,,,-0.01962400042,-0.76000,2.30000
,,,-0.01962199993,-0.74000,2.32000
,,,-0.01961999945,-0.74000,2.32000
,,,-0.01961800084,-0.74000,2.36000
,,,-0.01961600035,-0.72000,2.36000
,,,-0.01961399987,-0.74000,2.38000
,,,-0.01961199939,-0.74000,2.38000
,,,-0.01961000077,-0.74000,2.38000
,,,-0.01960800029,-0.76000,2.38000
,,,-0.01960599981,-0.76000,2.40000
,,,-0.01960399933,-0.76000,2.42000
,,,-0.01960200071,-0.74000,2.42000
,,,-0.01960000023,-0.76000,2.42000
,,,-0.01959799975,-0.76000,2.44000
,,,-0.01959599927,-0.76000,2.46000
,,,-0.01959400065,-0.74000,2.48000
,,,-0.01959200017,-0.74000,2.46000
,,,-0.01958999969,-0.74000,2.48000
,,,-0.01958799921,-0.76000,2.48000
,,,-0.01958600059,-0.76000,2.50000
,,,-0.01958400011,-0.74000,2.50000
,,,-0.01958199963,-0.74000,2.50000
,,,-0.01957999915,-0.76000,2.50000
,,,-0.01957800053,-0.74000,2.50000
,,,-0.01957600005,-0.76000,2.50000
,,,-0.01957399957,-0.76000,2.50000
,,,-0.01957199909,-0.76000,2.50000
,,,-0.01957000047,-0.76000,2.50000
,,,-0.01956799999,-0.76000,2.50000
,,,-0.01956599951,-0.76000,2.50000
,,,-0.01956399903,-0.74000,2.50000
,,,-0.01956200041,-0.76000,2.50000
,,,-0.01955999993,-0.76000,2.50000
,,,-0.01955799945,-0.78000,2.50000
,,,-0.01955600083,-0.74000,2.50000
,,,-0.01955400035,-0.74000,2.50000
,,,-0.01955199987,-0.76000,2.50000
,,,-0.01954999939,-0.76000,2.50000
,,,-0.01954800077,-0.74000,2.50000
,,,-0.01954600029,-0.76000,2.50000
,,,-0.01954399981,-0.76000,2.50000
,,,-0.01954199933,-0.76000,2.50000
,,,-0.01954000071,-0.76000,2.50000
,,,-0.01953800023,-0.76000,2.50000
,,,-0.01953599975,-0.74000,2.50000
,,,-0.01953399926,-0.76000,2.50000
,,,-0.01953200065,-0.76000,2.50000
,,,-0.01953000017,-0.76000,2.50000
,,,-0.01952799968,-0.76000,2.50000
,,,-0.01952599920,-0.78000,2.50000
,,,-0.01952400059,-0.78000,2.50000
,,,-0.01952200010,-0.76000,2.50000
,,,-0.01951999962,-0.74000,2.50000
,,,-0.01951799914,-0.76000,2.50000
,,,-0.01951600052,-0.76000,2.50000
,,,-0.01951400004,-0.74000,2.50000
,,,-0.01951199956,-0.76000,2.50000
,,,-0.01950999908,-0.76000,2.50000
,,,-0.01950800046,-0.76000,2.50000
,,,-0.01950599998,-0.76000,2.50000
,,,-0.01950399950,-0.76000,2.50000
,,,-0.01950199902,-0.74000,2.50000
,,,-0.01950000040,-0.74000,2.50000
,,,-0.01949799992,-0.76000,2.50000
,,,-0.01949599944,-0.76000,2.50000
,,,-0.01949400082,-0.74000,2.50000
,,,-0.01949200034,-0.76000,2.50000
,,,-0.01948999986,-0.76000,2.50000
,,,-0.01948799938,-0.76000,2.50000
,,,-0.01948600076,-0.74000,2.50000
,,,-0.01948400028,-0.74000,2.50000
,,,-0.01948199980,-0.76000,2.50000
,,,-0.01947999932,-0.74000,2.50000
,,,-0.01947800070,-0.76000,2.50000
,,,-0.01947600022,-0.74000,2.50000
,,,-0.01947399974,-0.76000,2.50000
,,,-0.01947199926,-0.76000,2.50000
,,,-0.01947000064,-0.76000,2.50000
,,,-0.01946800016,-0.74000,2.50000
,,,-0.01946599968,-0.76000,2.50000
,,,-0.01946399920,-0.76000,2.50000
,,,-0.01946200058,-0.76000,2.50000
,,,-0.01946000010,-0.76000,2.50000
,,,-0.01945799962,-0.76000,2.50000
,,,-0.01945599914,-0.74000,2.50000
,,,-0.01945400052,-0.76000,2.50000
,,,-0.01945200004,-0.76000,2.50000
,,,-0.01944999956,-0.76000,2.50000
,,,-0.01944799908,-0.76000,2.50000
,,,-0.01944600046,-0.76000,2.50000
,,,-0.01944399998,-0.76000,2.50000
,,,-0.01944199950,-0.74000,2.50000
,,,-0.01944000088,-0.76000,2.50000
,,,-0.01943800040,-0.74000,2.50000
,,,-0.01943599992,-0.76000,2.50000
,,,-0.01943399943,-0.76000,2.50000
,,,-0.01943200082,-0.76000,2.50000
,,,-0.01943000033,-0.74000,2.50000
,,,-0.01942799985,-0.76000,2.50000
,,,-0.01942599937,-0.76000,2.50000
,,,-0.01942400075,-0.76000,2.50000
,,,-0.01942200027,-0.76000,2.50000
,,,-0.01941999979,-0.76000,2.50000
,,,-0.01941799931,-0.76000,2.50000
,,,-0.01941600069,-0.76000,2.50000
,,,-0.01941400021,-0.76000,2.50000
,,,-0.01941199973,-0.76000,2.50000
,,,-0.01940999925,-0.76000,2.50000
,,,-0.01940800063,-0.74000,2.50000
,,,-0.01940600015,-0.76000,2.50000
,,,-0.01940399967,-0.76000,2.50000
,,,-0.01940199919,-0.74000,2.50000
,,,-0.01940000057,-0.76000,2.50000
,,,-0.01939800009,-0.76000,2.50000
,,,-0.01939599961,-0.74000,2.50000
,,,-0.01939399913,-0.76000,2.50000
,,,-0.01939200051,-0.76000,2.50000
,,,-0.01939000003,-0.76000,2.50000
,,,-0.01938799955,-0.76000,2.50000
,,,-0.01938599907,-0.76000,2.50000
,,,-0.01938400045,-0.76000,2.50000
,,,-0.01938199997,-0.76000,2.50000
,,,-0.01937999949,-0.74000,2.50000
,,,-0.01937800087,-0.76000,2.50000
,,,-0.01937600039,-0.76000,2.50000
,,,-0.01937399991,-0.74000,2.50000
,,,-0.01937199943,-0.76000,2.50000
,,,-0.01937000081,-0.78000,2.50000
,,,-0.01936800033,-0.76000,2.50000
,,,-0.01936599985,-0.76000,2.50000
,,,-0.01936399937,-0.76000,2.50000
,,,-0.01936200075,-0.76000,2.50000
,,,-0.01936000027,-0.76000,2.50000
,,,-0.01935799979,-0.74000,2.50000
,,,-0.01935599931,-0.76000,2.50000
